-------------------------------------------------------------------------------
Test set: com.example.sprinth2maven.SpringH2MavenApplicationTests
-------------------------------------------------------------------------------
Tests run: 1, Failures: 0, Errors: 0, Skipped: 0, Time elapsed: 3.454 s - in com.example.sprinth2maven.SpringH2MavenApplicationTests
